[{"category_id":1,"name":"Games","is_active":false,"created_at":"2022-06-15","birth_date":"1998-01-25"},
{"category_id":2,"name":"Electronics Video","is_active":false,"created_at":"2022-07-25","birth_date":"1983-07-29"},
{"category_id":3,"name":"Music","is_active":false,"created_at":"2022-08-14","birth_date":"1976-10-04"},
{"category_id":4,"name":"Home","is_active":true,"created_at":"2022-07-30","birth_date":"1988-06-28"},
{"category_id":5,"name":"Health","is_active":false,"created_at":"2022-07-28","birth_date":"1987-04-23"},
{"category_id":6,"name":"Baby","is_active":false,"created_at":"2022-07-10","birth_date":"1979-03-27"},
{"category_id":7,"name":"Baby Health","is_active":false,"created_at":"2022-07-05","birth_date":"1992-09-28"},
{"category_id":8,"name":"Grocery","is_active":false,"created_at":"2022-08-03","birth_date":null},
{"category_id":9,"name":"Shoes Sneakers","is_active":true,"created_at":"2022-09-05","birth_date":null},
{"category_id":10,"name":"Electronics","is_active":false,"created_at":"2022-08-27","birth_date":"1993-02-02"},
{"category_id":11,"name":"Movies","is_active":true,"created_at":"2022-09-03","birth_date":"1995-10-01"},
{"category_id":12,"name":"Games PC","is_active":true,"created_at":"2022-09-04","birth_date":"1997-11-10"},
{"category_id":13,"name":"Kids","is_active":true,"created_at":"2022-06-19","birth_date":"1977-08-26"},
{"category_id":14,"name":"Shoes Flat","is_active":true,"created_at":"2022-08-29","birth_date":"1990-02-19"},
{"category_id":15,"name":"Garden","is_active":true,"created_at":"2022-07-09","birth_date":"1997-12-11"},
{"category_id":16,"name":"Extreme Sports","is_active":true,"created_at":"2022-08-19","birth_date":"1983-05-21"},
{"category_id":17,"name":"Computers","is_active":false,"created_at":"2022-07-13","birth_date":"1995-11-29"},
{"category_id":18,"name":"Sports","is_active":true,"created_at":"2022-06-13","birth_date":"1981-11-23"},
{"category_id":19,"name":"Electronics Audio","is_active":true,"created_at":"2022-08-15","birth_date":"1988-08-09"},
{"category_id":20,"name":"Laptops","is_active":false,"created_at":"2022-08-11","birth_date":"1997-05-30"},
{"category_id":21,"name":"Shoes Leather","is_active":true,"created_at":"2022-07-14","birth_date":"1992-09-08"},
{"category_id":22,"name":"Outdoors","is_active":false,"created_at":"2022-08-10","birth_date":"1987-06-27"}]
